<?xml version="1.0"?>
<gpx version="1.1" creator="Xcode">
    
    <!--
     Provide one or more waypoints containing a latitude/longitude pair. If you provide one
     waypoint, Xcode will simulate that specific location. If you provide multiple waypoints,
     Xcode will simulate a route visiting each waypoint.
     -->
    <wpt lat="-32.41501234807468" lon="-63.2388244640439">
        <name>Villa Maria - WP 0</name>
    </wpt>
    
    <wpt lat="-32.415786429838555" lon="-63.237287341748605">
        <name>Villa Maria - WP 1</name>
    </wpt>
    
    <wpt lat="-32.41501234807468" lon="-63.2388244640439">
        <name>Villa Maria - WP 2</name>
    </wpt>
    
    <wpt lat="-32.41501234807468" lon="-63.2388244540439">
        <name>Villa Maria - WP 3</name>
    </wpt>
    
    <wpt lat="-32.415786429838555" lon="-63.237287341748605">
        <name>Villa Maria - WP 4</name>
    </wpt>
    
    <wpt lat="-30.415786429838555" lon="-62.237287341748605">
        <name>Outside - WP 5</name>
    </wpt>
    
    <wpt lat="-32.415786429838555" lon="-63.237287341748605">
        <name>Villa Maria - WP 6</name>
    </wpt>
    
    <wpt lat="-32.41501234807468" lon="-63.2388244640439">
        <name>Villa Maria - WP 7</name>
    </wpt>
    
    <wpt lat="-32.415786429838555" lon="-63.237287341748605">
        <name>Villa Maria - WP 8</name>
    </wpt>
    
</gpx>
